%YAML 1.1
%TAG !u! tag:unity3d.com,2011:
--- !u!1001 &100100000
Prefab:
  m_ObjectHideFlags: 1
  serializedVersion: 2
  m_Modification:
    m_TransformParent: {fileID: 0}
    m_Modifications: []
    m_RemovedComponents: []
  m_ParentPrefab: {fileID: 0}
  m_RootGameObject: {fileID: 1000012303845976}
  m_IsPrefabParent: 1
--- !u!1 &1000012303845976
GameObject:
  m_ObjectHideFlags: 0
  m_PrefabParentObject: {fileID: 0}
  m_PrefabInternal: {fileID: 100100000}
  serializedVersion: 4
  m_Component:
  - 4: {fileID: 4000011975916028}
  - 114: {fileID: 114000010947624190}
  m_Layer: 0
  m_Name: DictionaryLetter
  m_TagString: Untagged
  m_Icon: {fileID: 0}
  m_NavMeshLayer: 0
  m_StaticEditorFlags: 0
  m_IsActive: 1
--- !u!4 &4000011975916028
Transform:
  m_ObjectHideFlags: 1
  m_PrefabParentObject: {fileID: 0}
  m_PrefabInternal: {fileID: 100100000}
  m_GameObject: {fileID: 1000012303845976}
  m_LocalRotation: {x: 0, y: 0, z: 0, w: 1}
  m_LocalPosition: {x: 0, y: 0, z: 0}
  m_LocalScale: {x: 1, y: 1, z: 1}
  m_LocalEulerAnglesHint: {x: 0, y: 0, z: 0}
  m_Children: []
  m_Father: {fileID: 0}
  m_RootOrder: 0
--- !u!114 &114000010947624190
MonoBehaviour:
  m_ObjectHideFlags: 1
  m_PrefabParentObject: {fileID: 0}
  m_PrefabInternal: {fileID: 100100000}
  m_GameObject: {fileID: 1000012303845976}
  m_Enabled: 1
  m_EditorHideFlags: 0
  m_Script: {fileID: 11500000, guid: 4d0c51bb0b6e93049af5e88f93826e3b, type: 3}
  m_Name: 
  m_EditorClassIdentifier: 
  material: {fileID: 2100000, guid: 704d8163b92fd8146bf5f13c2e02f0f6, type: 2}
  mSprites:
  - name: A
    x: 301
    y: 1353
    width: 272
    height: 354
    borderLeft: 0
    borderRight: 0
    borderTop: 0
    borderBottom: 0
    paddingLeft: 14
    paddingRight: 14
    paddingTop: 8
    paddingBottom: 8
  - name: B
    x: 837
    y: 666
    width: 245
    height: 349
    borderLeft: 0
    borderRight: 0
    borderTop: 0
    borderBottom: 0
    paddingLeft: 27
    paddingRight: 28
    paddingTop: 10
    paddingBottom: 11
  - name: C
    x: 301
    y: 1007
    width: 270
    height: 345
    borderLeft: 0
    borderRight: 0
    borderTop: 0
    borderBottom: 0
    paddingLeft: 15
    paddingRight: 15
    paddingTop: 12
    paddingBottom: 13
  - name: D
    x: 301
    y: 1708
    width: 284
    height: 340
    borderLeft: 0
    borderRight: 0
    borderTop: 0
    borderBottom: 0
    paddingLeft: 8
    paddingRight: 8
    paddingTop: 15
    paddingBottom: 15
  - name: E
    x: 837
    y: 1016
    width: 250
    height: 348
    borderLeft: 0
    borderRight: 0
    borderTop: 0
    borderBottom: 0
    paddingLeft: 25
    paddingRight: 25
    paddingTop: 11
    paddingBottom: 11
  - name: F
    x: 1336
    y: 1018
    width: 235
    height: 346
    borderLeft: 0
    borderRight: 0
    borderTop: 0
    borderBottom: 0
    paddingLeft: 32
    paddingRight: 33
    paddingTop: 12
    paddingBottom: 12
  - name: G
    x: 574
    y: 1018
    width: 262
    height: 346
    borderLeft: 0
    borderRight: 0
    borderTop: 0
    borderBottom: 0
    paddingLeft: 19
    paddingRight: 19
    paddingTop: 12
    paddingBottom: 12
  - name: H
    x: 574
    y: 671
    width: 261
    height: 346
    borderLeft: 0
    borderRight: 0
    borderTop: 0
    borderBottom: 0
    paddingLeft: 19
    paddingRight: 20
    paddingTop: 12
    paddingBottom: 12
  - name: I
    x: 1088
    y: 1367
    width: 145
    height: 340
    borderLeft: 0
    borderRight: 0
    borderTop: 0
    borderBottom: 0
    paddingLeft: 77
    paddingRight: 78
    paddingTop: 15
    paddingBottom: 15
  - name: J
    x: 1407
    y: 1711
    width: 264
    height: 337
    borderLeft: 0
    borderRight: 0
    borderTop: 0
    borderBottom: 0
    paddingLeft: 18
    paddingRight: 18
    paddingTop: 16
    paddingBottom: 17
  - name: K
    x: 0
    y: 1353
    width: 295
    height: 348
    borderLeft: 0
    borderRight: 0
    borderTop: 0
    borderBottom: 0
    paddingLeft: 2
    paddingRight: 3
    paddingTop: 11
    paddingBottom: 11
  - name: L
    x: 0
    y: 5
    width: 288
    height: 336
    borderLeft: 0
    borderRight: 0
    borderTop: 0
    borderBottom: 0
    paddingLeft: 6
    paddingRight: 6
    paddingTop: 17
    paddingBottom: 17
  - name: M
    x: 0
    y: 668
    width: 300
    height: 333
    borderLeft: 0
    borderRight: 0
    borderTop: 0
    borderBottom: 0
    paddingLeft: 0
    paddingRight: 0
    paddingTop: 18
    paddingBottom: 19
  - name: N
    x: 301
    y: 653
    width: 262
    height: 353
    borderLeft: 0
    borderRight: 0
    borderTop: 0
    borderBottom: 0
    paddingLeft: 19
    paddingRight: 19
    paddingTop: 8
    paddingBottom: 9
  - name: O
    x: 574
    y: 319
    width: 255
    height: 351
    borderLeft: 0
    borderRight: 0
    borderTop: 0
    borderBottom: 0
    paddingLeft: 22
    paddingRight: 23
    paddingTop: 9
    paddingBottom: 10
  - name: P
    x: 1141
    y: 1709
    width: 265
    height: 339
    borderLeft: 0
    borderRight: 0
    borderTop: 0
    borderBottom: 0
    paddingLeft: 17
    paddingRight: 18
    paddingTop: 15
    paddingBottom: 16
  - name: Q
    x: 301
    y: 308
    width: 264
    height: 344
    borderLeft: 0
    borderRight: 0
    borderTop: 0
    borderBottom: 0
    paddingLeft: 18
    paddingRight: 18
    paddingTop: 13
    paddingBottom: 13
  - name: R
    x: 586
    y: 1711
    width: 277
    height: 337
    borderLeft: 0
    borderRight: 0
    borderTop: 0
    borderBottom: 0
    paddingLeft: 11
    paddingRight: 12
    paddingTop: 16
    paddingBottom: 17
  - name: S
    x: 0
    y: 1002
    width: 287
    height: 350
    borderLeft: 0
    borderRight: 0
    borderTop: 0
    borderBottom: 0
    paddingLeft: 6
    paddingRight: 7
    paddingTop: 10
    paddingBottom: 10
  - name: T
    x: 1672
    y: 1711
    width: 238
    height: 337
    borderLeft: 0
    borderRight: 0
    borderTop: 0
    borderBottom: 0
    paddingLeft: 31
    paddingRight: 31
    paddingTop: 16
    paddingBottom: 17
  - name: U
    x: 1088
    y: 1020
    width: 247
    height: 344
    borderLeft: 0
    borderRight: 0
    borderTop: 0
    borderBottom: 0
    paddingLeft: 26
    paddingRight: 27
    paddingTop: 13
    paddingBottom: 13
  - name: V
    x: 864
    y: 1711
    width: 276
    height: 337
    borderLeft: 0
    borderRight: 0
    borderTop: 0
    borderBottom: 0
    paddingLeft: 12
    paddingRight: 12
    paddingTop: 16
    paddingBottom: 17
  - name: W
    x: 0
    y: 342
    width: 300
    height: 325
    borderLeft: 0
    borderRight: 0
    borderTop: 0
    borderBottom: 0
    paddingLeft: 0
    paddingRight: 0
    paddingTop: 22
    paddingBottom: 23
  - name: X
    x: 574
    y: 1365
    width: 278
    height: 342
    borderLeft: 0
    borderRight: 0
    borderTop: 0
    borderBottom: 0
    paddingLeft: 11
    paddingRight: 11
    paddingTop: 14
    paddingBottom: 14
  - name: Y
    x: 0
    y: 1702
    width: 300
    height: 346
    borderLeft: 0
    borderRight: 0
    borderTop: 0
    borderBottom: 0
    paddingLeft: 0
    paddingRight: 0
    paddingTop: 12
    paddingBottom: 12
  - name: Z
    x: 853
    y: 1378
    width: 234
    height: 329
    borderLeft: 0
    borderRight: 0
    borderTop: 0
    borderBottom: 0
    paddingLeft: 33
    paddingRight: 33
    paddingTop: 20
    paddingBottom: 21
  mPixelSize: 1
  mReplacement: {fileID: 0}
  mCoordinates: 0
  sprites: []
